EDLD653_midterm
…
`geom_line()`: Each group consists of only one observation.
ℹ Do you need to adjust the group aesthetic?

# A tibble: 100 × 1
   `ggsave(path, plot, width = 9.5, height = 6.5, dpi = 500)`                   
   <chr>                                                                        
 1 /Users/cheyna/Library/CloudStorage/Dropbox-UniversityofOregon/Cheyna Warner/…
 2 /Users/cheyna/Library/CloudStorage/Dropbox-UniversityofOregon/Cheyna Warner/…
 3 /Users/cheyna/Library/CloudStorage/Dropbox-UniversityofOregon/Cheyna Warner/…
 4 /Users/cheyna/Library/CloudStorage/Dropbox-UniversityofOregon/Cheyna Warner/…
 5 /Users/cheyna/Library/CloudStorage/Dropbox-UniversityofOregon/Cheyna Warner/…
 6 /Users/cheyna/Library/CloudStorage/Dropbox-UniversityofOregon/Cheyna Warner/…
 7 /Users/cheyna/Library/CloudStorage/Dropbox-UniversityofOregon/Cheyna Warner/…
 8 /Users/cheyna/Library/CloudStorage/Dropbox-UniversityofOregon/Cheyna Warner/…
 9 /Users/cheyna/Library/CloudStorage/Dropbox-UniversityofOregon/Cheyna Warner/…
10 /Users/cheyna/Library/CloudStorage/Dropbox-UniversityofOregon/Cheyna Warner/…
# ℹ 90 more rows
